<svg xmlns="http://www.w3.org/2000/svg" viewBox="0 0 5927.9995 4025.8511" id="svg4322" clip-rule="evenodd" fill-rule="evenodd" image-rendering="optimizeQuality" shape-rendering="geometricPrecision" text-rendering="geometricPrecision"><defs id="defs4324"><style id="style4326"><![CDATA[
    .fil2 {fill:#107491}
    .fil1 {fill:#687889}
    .fil3 {fill:#EF9016}
    .fil0 {fill:#FEFEFE}
   ]]></style></defs><g id="g4403"><path class="fil1" d="M4052 407.85c-28 0-48 4-68 9v3h4c13 26 36 44 53 68 13 26 24 52 38 79 1-2 3-4 3-4 23-16 35-42 35-82-10-12-12-23-20-35-10-16-32-25-45-38z" id="path4332" fill="#687889"/><path class="fil2" d="M1425 3666.85h-228c-8-386-31-749-67-1089h-2l-348 1089H605l-346-1089h-2c-25 327-42 690-48 1089H0c14-486 47-941 101-1366h284l330 1004h2l332-1004h271c59 498 95 953 105 1366z" id="path4334" fill="#107491"/><path class="fil2" d="M2417 2658.85c-93 506-216 873-368 1102-119 176-249 265-391 265-38 0-84-12-140-34v-122c27 4 59 6 96 6 66 0 119-18 160-55 48-44 72-94 72-150 0-37-19-115-56-232l-251-780h224l181 583c40 132 57 225 50 278 99-264 167-550 207-861h216z" id="path4336" fill="#107491"/><path class="fil3" id="polygon4338" fill="#ef9016" d="M5462 3666.85h-650v-1366h219v1198h431z"/><path class="fil3" d="M3828 3393.85c-55-89-83-232-83-429 0-344 105-516 314-516 109 0 190 41 241 123 55 89 83 231 83 425 0 347-105 521-314 521-109 0-189-42-241-124zm814 306l-251-124c22-18 43-38 63-61 106-125 160-311 160-556 0-452-178-678-533-678-174 0-309 57-407 172-106 125-160 310-160 554 0 241 48 417 142 529 87 101 217 152 391 152 65 0 125-8 179-24l327 190 89-154z" id="path4340" fill="#ef9016"/><path class="fil3" d="M3419 3288.85c0 115-42 211-127 285s-199 111-342 111c-134 0-263-42-389-127l59-118c108 54 205 81 293 81 82 0 147-18 193-54 47-37 75-88 75-152 0-81-57-150-161-209-95-52-287-162-287-162-104-76-156-157-156-291 0-111 39-200 117-268 77-68 177-102 300-102 127 0 242 33 346 101l-52 117c-89-38-177-56-263-56-71 0-125 16-162 50-38 34-62 77-62 130 0 81 58 151 165 210 97 53 293 165 293 165 107 75 160 156 160 289z" id="path4342" fill="#ef9016"/><path class="fil2" d="M5736 1842.85c-132-3-234 10-320 46-25 10-64 10-68 42 14 13 15 34 27 52 20 33 54 78 86 101 34 27 69 53 105 76 65 40 137 63 200 102 36 24 73 53 109 78 18 13 30 35 53 43v-5c-12-15-15-36-27-53-16-16-33-31-49-48-48-64-108-120-172-166-53-37-168-86-190-147 0 0-1-2-3-4 36-3 79-16 114-26 56-15 107-12 165-27 26-6 53-14 79-23v-15c-30-29-51-69-82-97-84-73-177-144-273-203-51-33-117-54-172-83-19-9-52-14-64-31-30-36-46-84-68-127-47-91-94-191-135-287-30-65-48-129-84-189-170-280-355-450-639-617-61-35-134-50-211-68-42-2-83-5-124-6-27-12-53-43-76-58-94-60-337-188-406-18-45 107 66 213 104 267 28 38 64 81 84 124 11 28 15 58 26 87 27 73 51 154 86 222 18 34 38 71 61 102 13 18 36 26 41 56-23 33-24 83-38 124-59 187-36 418 48 555 27 41 90 132 174 97 74-29 58-124 79-206 5-20 2-33 11-46v3c24 46 47 91 68 137 51 81 141 165 215 221 39 30 71 81 120 99v-5h-3c-10-15-25-21-38-33-30-29-63-66-86-99-69-92-130-195-185-300-26-52-49-108-71-159-10-20-10-49-26-59-25 36-61 67-79 112-32 71-35 159-47 249-6 2-3 0-6 4-53-14-71-68-91-114-50-118-58-306-15-441 12-35 61-144 41-177-10-31-43-49-61-74-21-31-44-71-59-106-40-92-60-195-102-287-20-43-55-88-83-127-31-45-66-76-91-129-8-18-20-48-6-68 3-13 10-18 23-21 21-18 82 5 104 15 61 24 112 48 163 82 23 17 48 48 78 57h34c53 11 113 3 162 18 88 28 167 69 238 114 216 137 395 331 515 564 20 38 28 73 46 112 35 82 78 164 113 243 34 78 67 157 117 221 25 35 124 53 168 71 33 15 85 29 114 47 56 34 112 74 165 112 27 20 109 61 114 94z" id="path4344" fill="#107491"/></g></svg>